F4SG: Africast - Lab exercise: day 1
…
library(lubridate)
vaccine_administrated <- read_csv("data/vaccine_adminstrated.csv")

Rows: 972 Columns: 5
── Column specification ────────────────────────────────────────────────────────
Delimiter: ","
chr (2): month, region
dbl (3): dose_adminstrated, population_under1, strike

ℹ Use `spec()` to retrieve the full column specification for this data.
ℹ Specify the column types or set `show_col_types = FALSE` to quiet this message.

vaccine_administrated

# A tibble: 972 × 5
   month    region dose_adminstrated population_under1 strike
   <chr>    <chr>              <dbl>             <dbl>  <dbl>
 1 2013 Jan A                  13328            183957      0
 2 2013 Feb A                  12523            183957      0
 3 2013 Mar A                  10051            183957      0
 4 2013 Apr A                   9194            183957      0
 5 2013 May A                  15985            183957      0
 6 2013 Jun A                  13776            183957      0
 7 2013 Jul A                  14258            183957      0
 8 2013 Aug A                  13665            183957      0
 9 2013 Sep A                  12909            183957      0
10 2013 Oct A                  15010            183957      0
# ℹ 962 more rows

After importing your data, it’s important to double-check the structure of the data and the data types of the variables. The structure of the data you import into R must be a tibble/data frame.

Verify the data type of each variable in vaccine_administered. We may need to modify the data type of month, and strike. Could you explain why?

vaccine_administrated <- vaccine_administrated |> 
  mutate(month = yearmonth(month), strike = as_factor(strike))
vaccine_administrated

# A tibble: 972 × 5
      month region dose_adminstrated population_under1 strike
      <mth> <chr>              <dbl>             <dbl> <fct> 
 1 2013 Jan A                  13328            183957 0     
 2 2013 Feb A                  12523            183957 0     
 3 2013 Mar A                  10051            183957 0     
 4 2013 Apr A                   9194            183957 0     
 5 2013 May A                  15985            183957 0     
 6 2013 Jun A                  13776            183957 0     
 7 2013 Jul A                  14258            183957 0     
 8 2013 Aug A                  13665            183957 0     
 9 2013 Sep A                  12909            183957 0     
10 2013 Oct A                  15010            183957 0     
# ℹ 962 more rows
…
Have you identified any duplicate observations? If your data contains no duplicates, you may proceed with creating a tsibble. Otherwise, you need to fix it.

How do you fix duplicated observations?

Create tsibble

You can store your data in a tsibble format, which is suitable for time series analysis and forecasting. Most functions that you use for time series analysis and forecasting, requires your data to be in a tsibble format.

Complete the following R chunk to create a tsibble.

vaccine_administrated_tsb <- vaccine_administrated |>
 as_tsibble(index = month, key=region)
vaccine_administrated_tsb

# A tsibble: 972 x 5 [1M]
# Key:       region [9]
      month region dose_adminstrated population_under1 strike
      <mth> <chr>              <dbl>             <dbl> <fct> 
 1 2013 Jan A                  13328            183957 0     
 2 2013 Feb A                  12523            183957 0     
 3 2013 Mar A                  10051            183957 0     
 4 2013 Apr A                   9194            183957 0     
 5 2013 May A                  15985            183957 0     
 6 2013 Jun A                  13776            183957 0     
 7 2013 Jul A                  14258            183957 0     
 8 2013 Aug A                  13665            183957 0     
 9 2013 Sep A                  12909            183957 0     
10 2013 Oct A                  15010            183957 0     
# ℹ 962 more rows
…
Manipulating time series

Depending on the decision your forecast will inform, you may need to manipulate your tsibble. For instance, if you’re forecasting the total dose administered in the country, or if you need to forecast quarterly doses administered for each region or for the entire country, you need to manipulate your time series frist.

Remember, you can use index_by(), group_by() or group_by_key(), and summarise() to create different temporal granularity.

Complete the following code to create total dose administrated in the country.

vaccine_administrated_total <- vaccine_administrated_tsb |> 
  index_by(month) |>
  summarise(dose_adminstrated = sum(dose_adminstrated))
vaccine_administrated_total

# A tsibble: 108 x 2 [1M]
      month dose_adminstrated
      <mth>             <dbl>
 1 2013 Jan            116829
 2 2013 Feb            108938
 3 2013 Mar             98702
 4 2013 Apr             95553
 5 2013 May            137861
 6 2013 Jun            116245
 7 2013 Jul            119031
 8 2013 Aug            109351
 9 2013 Sep            107001
10 2013 Oct            115794
# ℹ 98 more rows

Depending on the forecasting task on hand, you may need to work with other time granularities such as quarterly time series.

Complete the following code to create total dose administrated in the country.

quarterly_vaccine_administrated <- vaccine_administrated_tsb |>
  index_by(quarter = yearquarter(month)) |>
    summarise(dose_adminstrated = sum(dose_adminstrated))
quarterly_vaccine_administrated

# A tsibble: 36 x 2 [1Q]
   quarter dose_adminstrated
     <qtr>             <dbl>
 1 2013 Q1            324469
 2 2013 Q2            349659
 3 2013 Q3            335383
 4 2013 Q4            295517
 5 2014 Q1            343574
 6 2014 Q2            344160
 7 2014 Q3            346011
 8 2014 Q4            304819
 9 2015 Q1            337089
10 2015 Q2            340060
# ℹ 26 more rows

What if you need to create quarterly dose administrated in each region, write the R to achieve that.

quarterly_vaccine_administrated_region <- vaccine_administrated_tsb |> group_by_key() |> 
  index_by(quarter = yearquarter(month)) |>
    summarise(dose_adminstrated = sum(dose_adminstrated))
quarterly_vaccine_administrated_region

# A tsibble: 324 x 3 [1Q]
# Key:       region [9]
   region quarter dose_adminstrated
   <chr>    <qtr>             <dbl>
 1 A      2013 Q1             35902
 2 A      2013 Q2             38955
 3 A      2013 Q3             40832
 4 A      2013 Q4             37056
 5 A      2014 Q1             42289
 6 A      2014 Q2             40084
 7 A      2014 Q3             42577
 8 A      2014 Q4             32617
 9 A      2015 Q1             39745
10 A      2015 Q2             41050
# ℹ 314 more rows
…
