F4SG: Africast - Lab exercise: day 3
…
Observe the vaccine_fit object.

What type of data structure is it? How many rows and columns are present, and what do they represent?

Extract fitted values and residuals

You can extract fitted values and residuals for each model. Complete the following code to extract those values for all models

vaccine_fit |> augment()

# A tsibble: 2,916 x 7 [1M]
# Key:       region, .model [27]
   region .model    month dose_adminstrated .fitted  .resid  .innov
   <chr>  <chr>     <mth>             <dbl>   <dbl>   <dbl>   <dbl>
 1 A      mean   2013 Jan             13328  12875.   453.    453. 
 2 A      mean   2013 Feb             12523  12875.  -352.   -352. 
 3 A      mean   2013 Mar             10051  12875. -2824.  -2824. 
 4 A      mean   2013 Apr              9194  12875. -3681.  -3681. 
 5 A      mean   2013 May             15985  12875.  3110.   3110. 
 6 A      mean   2013 Jun             13776  12875.   901.    901. 
 7 A      mean   2013 Jul             14258  12875.  1383.   1383. 
 8 A      mean   2013 Aug             13665  12875.   790.    790. 
 9 A      mean   2013 Sep             12909  12875.    33.9    33.9
10 A      mean   2013 Oct             15010  12875.  2135.   2135. 
# ℹ 2,906 more rows

You can use filter() to extract these values for a specific model.

Complete the following code to see only results for naive model:

vaccine_fit |> augment() |> filter(.model=="naive")

# A tsibble: 972 x 7 [1M]
# Key:       region, .model [9]
   region .model    month dose_adminstrated .fitted .resid .innov
   <chr>  <chr>     <mth>             <dbl>   <dbl>  <dbl>  <dbl>
 1 A      naive  2013 Jan             13328      NA     NA     NA
 2 A      naive  2013 Feb             12523      NA     NA     NA
 3 A      naive  2013 Mar             10051      NA     NA     NA
 4 A      naive  2013 Apr              9194      NA     NA     NA
 5 A      naive  2013 May             15985      NA     NA     NA
 6 A      naive  2013 Jun             13776      NA     NA     NA
 7 A      naive  2013 Jul             14258      NA     NA     NA
 8 A      naive  2013 Aug             13665      NA     NA     NA
 9 A      naive  2013 Sep             12909      NA     NA     NA
10 A      naive  2013 Oct             15010      NA     NA     NA
# ℹ 962 more rows

You can use select() to get fitted values or residuals. Complete the R code to see residuals for the naive method:

vaccine_fit |> augment() |> filter(.model=="naive") |> select(.resid)

# A tsibble: 972 x 4 [1M]
# Key:       region, .model [9]
   .resid    month region .model
    <dbl>    <mth> <chr>  <chr> 
 1     NA 2013 Jan A      naive 
 2     NA 2013 Feb A      naive 
 3     NA 2013 Mar A      naive 
 4     NA 2013 Apr A      naive 
 5     NA 2013 May A      naive 
 6     NA 2013 Jun A      naive 
 7     NA 2013 Jul A      naive 
 8     NA 2013 Aug A      naive 
 9     NA 2013 Sep A      naive 
10     NA 2013 Oct A      naive 
# ℹ 962 more rows

We can look into more details of the trained models (mable) using tidy(), report(), glance() and extract information related to trained models. These function would be more useful with models like Regression, exponential smoothing (ETS) and ARIMA and we use them later once these models are introduced.

Produce forecast

In order to produce forecasts, we pass the mable object, vaccine_fit, to the forecast() function and specify the forecast horizon required. This will generate both point forecast and a distribution of forecasts based on Normal distribution.

Complete the following R code to produce forecasts of dose administrated for 12 months ahead:

forecast_horizon <- 12
vaccine_forecast <- vaccine_fit |> forecast(h=forecast_horizon)
vaccine_forecast

# A fable: 324 x 5 [1M]
# Key:     region, .model [27]
   region .model    month dose_adminstrated  .mean
   <chr>  <chr>     <mth>            <dist>  <dbl>
 1 A      mean   2022 Jan N(12875, 3236838) 12875.
 2 A      mean   2022 Feb N(12875, 3236838) 12875.
 3 A      mean   2022 Mar N(12875, 3236838) 12875.
 4 A      mean   2022 Apr N(12875, 3236838) 12875.
 5 A      mean   2022 May N(12875, 3236838) 12875.
 6 A      mean   2022 Jun N(12875, 3236838) 12875.
 7 A      mean   2022 Jul N(12875, 3236838) 12875.
 8 A      mean   2022 Aug N(12875, 3236838) 12875.
 9 A      mean   2022 Sep N(12875, 3236838) 12875.
10 A      mean   2022 Oct N(12875, 3236838) 12875.
# ℹ 314 more rows
…
Extract prediction intervals

You may want to extract prediction intervals for any coverage probability you are interested in.

Complete the R code to achieve that:

vaccine_forecast_interval <- vaccine_forecast |> hilo(level = 90)
vaccine_forecast_interval

# A tsibble: 324 x 6 [1M]
# Key:       region, .model [27]
   region .model    month dose_adminstrated  .mean                  `90%`
   <chr>  <chr>     <mth>            <dist>  <dbl>                 <hilo>
 1 A      mean   2022 Jan N(12875, 3236838) 12875. [9915.857, 15834.44]90
 2 A      mean   2022 Feb N(12875, 3236838) 12875. [9915.857, 15834.44]90
 3 A      mean   2022 Mar N(12875, 3236838) 12875. [9915.857, 15834.44]90
 4 A      mean   2022 Apr N(12875, 3236838) 12875. [9915.857, 15834.44]90
 5 A      mean   2022 May N(12875, 3236838) 12875. [9915.857, 15834.44]90
 6 A      mean   2022 Jun N(12875, 3236838) 12875. [9915.857, 15834.44]90
 7 A      mean   2022 Jul N(12875, 3236838) 12875. [9915.857, 15834.44]90
 8 A      mean   2022 Aug N(12875, 3236838) 12875. [9915.857, 15834.44]90
 9 A      mean   2022 Sep N(12875, 3236838) 12875. [9915.857, 15834.44]90
10 A      mean   2022 Oct N(12875, 3236838) 12875. [9915.857, 15834.44]90
# ℹ 314 more rows

To be able to see values for lower bound and upper bound in separate columns, you need to unpack the prediction intervals extracted above.

vaccine_forecast_interval |> unpack_hilo("90%")

# A tsibble: 324 x 7 [1M]
# Key:       region, .model [27]
   region .model    month dose_adminstrated  .mean `90%_lower` `90%_upper`
   <chr>  <chr>     <mth>            <dist>  <dbl>       <dbl>       <dbl>
 1 A      mean   2022 Jan N(12875, 3236838) 12875.       9916.      15834.
 2 A      mean   2022 Feb N(12875, 3236838) 12875.       9916.      15834.
 3 A      mean   2022 Mar N(12875, 3236838) 12875.       9916.      15834.
 4 A      mean   2022 Apr N(12875, 3236838) 12875.       9916.      15834.
 5 A      mean   2022 May N(12875, 3236838) 12875.       9916.      15834.
 6 A      mean   2022 Jun N(12875, 3236838) 12875.       9916.      15834.
 7 A      mean   2022 Jul N(12875, 3236838) 12875.       9916.      15834.
 8 A      mean   2022 Aug N(12875, 3236838) 12875.       9916.      15834.
 9 A      mean   2022 Sep N(12875, 3236838) 12875.       9916.      15834.
10 A      mean   2022 Oct N(12875, 3236838) 12875.       9916.      15834.
# ℹ 314 more rows
…
When a normal distribution for the residuals is an unreasonable assumption, one alternative is to use bootstrapping, which only assumes that the residuals are uncorrelated with constant variance. You can also use forecast() directly to generate futures:

Attention: Producing forecasts using bootstrapping may take time!! so, running time might be an issue if you have many time series.

fc_bootstrap <- vaccine_fit |>
  forecast(h = forecast_horizon, bootstrap = TRUE, times = 1000)

You can use generate() function to generate futures using bootstrapping. Here we do it for one model only:

fit <- vaccine_administrated_tsb |>
  model(naive=NAIVE(dose_adminstrated))
sim_bootstrap <- fit |> generate(h = forecast_horizon, times = 1000, bootstrap = TRUE)
sim_bootstrap

# A tsibble: 108,000 x 6 [1M]
# Key:       region, .model, .rep [9,000]
   region .model .rep     month .innov   .sim
   <chr>  <chr>  <chr>    <mth>  <dbl>  <dbl>
 1 A      naive  1     2022 Jan  3255. 16131.
 2 A      naive  1     2022 Feb  1867. 17998.
 3 A      naive  1     2022 Mar  4513. 22512.
 4 A      naive  1     2022 Apr -1961. 20551.
 5 A      naive  1     2022 May  3358. 23909.
 6 A      naive  1     2022 Jun   135. 24044.
 7 A      naive  1     2022 Jul  1956. 26001.
 8 A      naive  1     2022 Aug  -975. 25026.
 9 A      naive  1     2022 Sep -2000. 23026.
10 A      naive  1     2022 Oct  -438. 22588.
# ℹ 107,990 more rows
…
How many rows and columns are present, and what do they represent?

Check training model’s output

You can to get a summary of the trained regression models, this will tell you which variables are useful in explaining the variation in the vaccine dose administrated and also how much variation could be explained bu each model.

fit_regression  |> report()

Warning in report.mdl_df(fit_regression): Model reporting is only supported for
individual models, so a glance will be shown. To see the report for a specific
model, use `select()` and `filter()` to identify a single model.

# A tibble: 27 × 16
   region .model r_squared adj_r_squared sigma2 statistic  p_value    df log_lik
   <chr>  <chr>      <dbl>         <dbl>  <dbl>     <dbl>    <dbl> <int>   <dbl>
 1 A      regre…     0.346         0.264 2.36e6      4.19 2.84e- 5    13   -939.
 2 A      regre…     0.349         0.259 2.38e6      3.87 5.35e- 5    14   -939.
 3 A      regre…     0.466         0.386 1.97e6      5.80 5.40e- 8    15   -928.
 4 B      regre…     0.726         0.692 3.91e5     21.0  1.04e-21    13   -842.
 5 B      regre…     0.739         0.703 3.77e5     20.5  5.71e-22    14   -839.
 6 B      regre…     0.874         0.855 1.84e5     46.1  1.42e-35    15   -800.
 7 C      regre…     0.323         0.238 3.66e6      3.78 1.08e- 4    13   -962.
 8 C      regre…     0.333         0.241 3.65e6      3.61 1.29e- 4    14   -962.
 9 C      regre…     0.484         0.406 2.85e6      6.22 1.42e- 8    15   -948.
10 D      regre…     0.275         0.184 4.57e6      3.01 1.32e- 3    13   -974.
# ℹ 17 more rows
# ℹ 7 more variables: AIC <dbl>, AICc <dbl>, BIC <dbl>, CV <dbl>,
#   deviance <dbl>, df.residual <int>, rank <int>
…
Residual standard error: 429.1 on 93 degrees of freedom
Multiple R-squared: 0.874,  Adjusted R-squared: 0.8551
F-statistic:  46.1 on 14 and 93 DF, p-value: < 2.22e-16

Get a summary of estimated parameters and corresponding statistics using tidy() and glance(). You can try these functions by completing the following code.

use tidy()

fit_regression |> tidy()

# A tibble: 378 × 7
   region .model      term          estimate std.error statistic  p.value
   <chr>  <chr>       <chr>            <dbl>     <dbl>     <dbl>    <dbl>
 1 A      regression1 (Intercept)   12892.      563.     22.9    1.90e-40
 2 A      regression1 trend()           3.51      4.77    0.735  4.64e- 1
 3 A      regression1 season()year2  -240.      724.     -0.331  7.41e- 1
 4 A      regression1 season()year3   184.      724.      0.255  8.00e- 1
 5 A      regression1 season()year4  -662.      725.     -0.913  3.63e- 1
 6 A      regression1 season()year5  1232.      725.      1.70   9.24e- 2
 7 A      regression1 season()year6  -166.      725.     -0.229  8.19e- 1
 8 A      regression1 season()year7   683.      725.      0.943  3.48e- 1
 9 A      regression1 season()year8    50.1     725.      0.0691 9.45e- 1
10 A      regression1 season()year9   707.      725.      0.974  3.32e- 1
# ℹ 368 more rows

use glance()

fit_regression |> glance()

# A tibble: 27 × 16
   region .model r_squared adj_r_squared sigma2 statistic  p_value    df log_lik
   <chr>  <chr>      <dbl>         <dbl>  <dbl>     <dbl>    <dbl> <int>   <dbl>
 1 A      regre…     0.346         0.264 2.36e6      4.19 2.84e- 5    13   -939.
 2 A      regre…     0.349         0.259 2.38e6      3.87 5.35e- 5    14   -939.
 3 A      regre…     0.466         0.386 1.97e6      5.80 5.40e- 8    15   -928.
 4 B      regre…     0.726         0.692 3.91e5     21.0  1.04e-21    13   -842.
 5 B      regre…     0.739         0.703 3.77e5     20.5  5.71e-22    14   -839.
 6 B      regre…     0.874         0.855 1.84e5     46.1  1.42e-35    15   -800.
 7 C      regre…     0.323         0.238 3.66e6      3.78 1.08e- 4    13   -962.
 8 C      regre…     0.333         0.241 3.65e6      3.61 1.29e- 4    14   -962.
 9 C      regre…     0.484         0.406 2.85e6      6.22 1.42e- 8    15   -948.
10 D      regre…     0.275         0.184 4.57e6      3.01 1.32e- 3    13   -974.
# ℹ 17 more rows
# ℹ 7 more variables: AIC <dbl>, AICc <dbl>, BIC <dbl>, CV <dbl>,
#   deviance <dbl>, df.residual <int>, rank <int>

You can augment() to see the fitted values and residuals:

fit_regression |> augment()

# A tsibble: 2,916 x 7 [1M]
# Key:       region, .model [27]
   region .model         month dose_adminstrated .fitted .resid .innov
   <chr>  <chr>          <mth>             <dbl>   <dbl>  <dbl>  <dbl>
 1 A      regression1 2013 Jan             13328  12895.   433.   433.
 2 A      regression1 2013 Feb             12523  12658.  -135.  -135.
 3 A      regression1 2013 Mar             10051  13086. -3035. -3035.
 4 A      regression1 2013 Apr              9194  12244. -3050. -3050.
 5 A      regression1 2013 May             15985  14141.  1844.  1844.
 6 A      regression1 2013 Jun             13776  12746.  1030.  1030.
 7 A      regression1 2013 Jul             14258  13599.   659.   659.
 8 A      regression1 2013 Aug             13665  12970.   695.   695.
 9 A      regression1 2013 Sep             12909  13630.  -721.  -721.
10 A      regression1 2013 Oct             15010  12770.  2240.  2240.
# ℹ 2,906 more rows
…
