F4SG: Africast - Lab exercise: day 4
…
  sigma^2:  2448776

     AIC     AICc      BIC 
2109.475 2114.692 2149.706 

Which model is returned in, what are its components and parameter values?

Use tidy():

fit_ets |> tidy()

# A tibble: 98 × 4
   region .model        term      estimate
   <chr>  <chr>         <chr>        <dbl>
 1 A      automatic_ets alpha     0.000101
 2 A      automatic_ets gamma     0.000100
 3 A      automatic_ets l[0]  12930.      
 4 A      automatic_ets s[0]  -3138.      
 5 A      automatic_ets s[-1]  -833.      
 6 A      automatic_ets s[-2]   123.      
 7 A      automatic_ets s[-3]   858.      
 8 A      automatic_ets s[-4]   260.      
 9 A      automatic_ets s[-5]  1021.      
10 A      automatic_ets s[-6]   -96.9     
# ℹ 88 more rows
…
You can also observe the values corresponding to level, trend,and seasonal components in ETS framework. Each column corresponds to one components.

Complete the R code and run to observe the selected model components:

fit_ets |> components()

# A dable: 1,047 x 8 [1M]
# Key:     region, .model [9]
# :        dose_adminstrated = (lag(level, 1) + lag(slope, 1)) * lag(season,
#   12) * (1 + remainder)
   region .model           month dose_adminstrated level season remainder slope
   <chr>  <chr>            <mth>             <dbl> <dbl>  <dbl>     <dbl> <dbl>
 1 A      automatic_ets 2012 Jan                NA    NA  -21.8        NA    NA
 2 A      automatic_ets 2012 Feb                NA    NA  -40.9        NA    NA
 3 A      automatic_ets 2012 Mar                NA    NA  740.         NA    NA
 4 A      automatic_ets 2012 Apr                NA    NA  -95.4        NA    NA
 5 A      automatic_ets 2012 May                NA    NA 1223.         NA    NA
 6 A      automatic_ets 2012 Jun                NA    NA  -96.9        NA    NA
 7 A      automatic_ets 2012 Jul                NA    NA 1021.         NA    NA
 8 A      automatic_ets 2012 Aug                NA    NA  260.         NA    NA
 9 A      automatic_ets 2012 Sep                NA    NA  858.         NA    NA
10 A      automatic_ets 2012 Oct                NA    NA  123.         NA    NA
# ℹ 1,037 more rows

Could you describe what each row and column represent?

Generate forecasts using ETS

Now, we can forecast with the trained ETS model. Complete and run the following code to produce forecasts:

forecast_horizon <- 12
forecast_ets <- fit_ets |>
  forecast(h = forecast_horizon) 
forecast_ets

# A fable: 108 x 5 [1M]
# Key:     region, .model [9]
   region .model           month dose_adminstrated  .mean
   <chr>  <chr>            <mth>            <dist>  <dbl>
 1 A      automatic_ets 2022 Jan N(12907, 2448776) 12907.
 2 A      automatic_ets 2022 Feb N(12888, 2448776) 12888.
 3 A      automatic_ets 2022 Mar N(13668, 2448776) 13668.
 4 A      automatic_ets 2022 Apr N(12833, 2448776) 12833.
 5 A      automatic_ets 2022 May N(14152, 2448776) 14152.
 6 A      automatic_ets 2022 Jun N(12832, 2448776) 12832.
 7 A      automatic_ets 2022 Jul N(13949, 2448776) 13949.
 8 A      automatic_ets 2022 Aug N(13189, 2448776) 13189.
 9 A      automatic_ets 2022 Sep N(13787, 2448776) 13787.
10 A      automatic_ets 2022 Oct N(13052, 2448776) 13052.
# ℹ 98 more rows
…
Coefficients:
         ma1    sar1    sar2     sma1   constant
      0.2600  0.7263  0.1264  -0.5431  1904.6765
s.e.  0.0917  0.2415  0.1502   0.2448    57.9401

sigma^2 estimated as 2529683:  log likelihood=-949.43
AIC=1910.87   AICc=1911.7   BIC=1926.96

Use tidy():

fit_arima |> tidy()

# A tibble: 34 × 7
   region .model          term     estimate std.error statistic  p.value
   <chr>  <chr>           <chr>       <dbl>     <dbl>     <dbl>    <dbl>
 1 A      automatic_arima ma1         0.260    0.0917     2.84  5.44e- 3
 2 A      automatic_arima sar1        0.726    0.242      3.01  3.28e- 3
 3 A      automatic_arima sar2        0.126    0.150      0.842 4.02e- 1
 4 A      automatic_arima sma1       -0.543    0.245     -2.22  2.86e- 2
 5 A      automatic_arima constant 1905.      57.9       32.9   4.53e-58
 6 B      automatic_arima ma1        -0.403    0.121     -3.33  1.19e- 3
 7 B      automatic_arima ma2        -0.193    0.136     -1.41  1.60e- 1
 8 B      automatic_arima ma3        -0.339    0.128     -2.66  9.06e- 3
 9 B      automatic_arima constant   29.8      4.48       6.65  1.29e- 9
10 C      automatic_arima ar1         0.213    0.103      2.06  4.15e- 2
# ℹ 24 more rows
…
Generate forecasts using ARIMA

Now, we can forecast with the fitted ARIMA model:

forecast_horizon <- 12
vaccine_fcst_arima <- fit_arima |> forecast(h = forecast_horizon)  

Let’s now observe the forecast table, vaccine_fcst_arima:

vaccine_fcst_arima

# A fable: 108 x 5 [1M]
# Key:     region, .model [9]
   region .model             month dose_adminstrated  .mean
   <chr>  <chr>              <mth>            <dist>  <dbl>
 1 A      automatic_arima 2022 Jan N(13076, 2529701) 13076.
 2 A      automatic_arima 2022 Feb N(12141, 2700761) 12141.
 3 A      automatic_arima 2022 Mar N(13752, 2700761) 13752.
 4 A      automatic_arima 2022 Apr N(13159, 2700761) 13159.
 5 A      automatic_arima 2022 May N(13406, 2700761) 13406.
 6 A      automatic_arima 2022 Jun N(13254, 2700761) 13254.
 7 A      automatic_arima 2022 Jul N(13482, 2700761) 13482.
 8 A      automatic_arima 2022 Aug N(13040, 2700761) 13040.
 9 A      automatic_arima 2022 Sep N(13807, 2700761) 13807.
10 A      automatic_arima 2022 Oct N(12653, 2700761) 12653.
# ℹ 98 more rows
…
You can also specify the order of p,q,P,Q using specific function pdq() and PDQ()manually:

fit_arima_manual <- vaccine_administrated_tsb |>
  model(
    automatic_arima = ARIMA(dose_adminstrated),
    arima_manual1=ARIMA(dose_adminstrated ~ 1+pdq(1,1,1)+PDQ(0,0,1)),
    arima_manual2 = ARIMA(dose_adminstrated ~ 1+ pdq(3,1,0)+PDQ(1,0,0))
  )

Could you check AICc for the manual ARIMA models and compare it to the automatic ARIMA model?

fit_arima_manual |> glance() |> select(region,.model, AICc) |>  arrange(region,AICc)

# A tibble: 27 × 3
   region .model           AICc
   <chr>  <chr>           <dbl>
 1 A      arima_manual1   1910.
 2 A      automatic_arima 1912.
 3 A      arima_manual2   1925.
 4 B      arima_manual1   1647.
 5 B      automatic_arima 1648.
 6 B      arima_manual2   1662.
 7 C      automatic_arima 1944.
 8 C      arima_manual1   1945.
 9 C      arima_manual2   1966.
10 D      arima_manual1   1962.
# ℹ 17 more rows
…
