F4SG: Africast - Lab exercise: day 5
…
Compute forecast accuracy

Let’s compare the forecast accuracy of all models. Complete the R code to compute the point forecast accuracy, prediction interval accuracy and probabilistic distribution accuracy measures:

forecast_vaccine |> 
  accuracy(vaccine_administrated_tsb,
           measures = list(point_accuracy_measures,
                           interval_accuracy_measures, 
                           distribution_accuracy_measures)
)

# A tibble: 81 × 14
   .model region .type    ME  RMSE   MAE   MPE  MAPE  MASE RMSSE    ACF1 winkler
   <chr>  <chr>  <chr> <dbl> <dbl> <dbl> <dbl> <dbl> <dbl> <dbl>   <dbl>   <dbl>
 1 autom… A      Test  912.  1308. 1048.  6.23  7.34 0.635 0.608  0.212    6682.
 2 autom… B      Test  758.   870.  772. 11.1  11.4  0.962 0.817  0.368    3124.
 3 autom… C      Test  720.  1018.  856.  5.44  6.73 0.431 0.378  0.178    8864.
 4 autom… D      Test  561.  1274. 1027.  2.95  6.36 0.493 0.440  0.202    9336.
 5 autom… E      Test  608.   673.  608. 10.1  10.1  1.20  0.874  0.0861   2580.
 6 autom… G      Test  854.  1625. 1199.  6.35 10.2  0.839 0.808  0.0713   7063.
 7 autom… H      Test  931.  2028. 1846.  2.53  5.62 0.988 0.834  0.278    7852.
 8 autom… I      Test  733.  1034.  916   5.18  6.68 0.591 0.504  0.380    6087.
 9 autom… J      Test  -92.4  229.  194. -2.01  3.91 0.628 0.578  0.208    1327.
10 autom… A      Test  767.  1620. 1232.  5.11  8.74 0.746 0.753 -0.147    6941.
# ℹ 71 more rows
# ℹ 2 more variables: percentile <dbl>, CRPS <dbl>
…
fit_tscv <-  train_tscv |> 
  model(
    mean = MEAN(dose_adminstrated),
    naive = NAIVE(dose_adminstrated),
    snaive = SNAIVE(dose_adminstrated),
    automatic_ets = ETS(dose_adminstrated),
    automatic_arima = ARIMA(dose_adminstrated),
  regression1 = TSLM(dose_adminstrated ~ trend() + season()),
  regression_population = TSLM(dose_adminstrated ~ trend() + season() + population_under1),
  regression_population_strike = TSLM(dose_adminstrated ~ trend() + season() + population_under1+strike)) |> 
  mutate(combination = (automatic_ets+automatic_arima+regression_population_strike)/3
)
fit_tscv

# A mable: 99 x 11
# Key:     .id, region [99]
     .id region    mean   naive   snaive automatic_ets
   <int> <chr>  <model> <model>  <model>       <model>
 1     1 A       <MEAN> <NAIVE> <SNAIVE>  <ETS(A,N,A)>
 2     1 B       <MEAN> <NAIVE> <SNAIVE>  <ETS(A,N,N)>
 3     1 C       <MEAN> <NAIVE> <SNAIVE>  <ETS(A,N,N)>
 4     1 D       <MEAN> <NAIVE> <SNAIVE>  <ETS(A,N,A)>
 5     1 E       <MEAN> <NAIVE> <SNAIVE>  <ETS(M,N,N)>
 6     1 G       <MEAN> <NAIVE> <SNAIVE>  <ETS(M,N,A)>
 7     1 H       <MEAN> <NAIVE> <SNAIVE>  <ETS(M,A,M)>
 8     1 I       <MEAN> <NAIVE> <SNAIVE>  <ETS(A,N,N)>
 9     1 J       <MEAN> <NAIVE> <SNAIVE>  <ETS(A,N,A)>
10     2 A       <MEAN> <NAIVE> <SNAIVE>  <ETS(A,N,A)>
# ℹ 89 more rows
# ℹ 5 more variables: automatic_arima <model>, regression1 <model>,
#   regression_population <model>, regression_population_strike <model>,
#   combination <model>

Observe the fit_tscv object.

What type of data structure is it? How many rows and columns are present, and what do they represent?

produce forecasts

We can forecast using trained models above. Complete the R code to produce forecasts for the TSCV:

fcst_tscv <- fit_tscv |> 
  forecast(new_data = test_future_tscv)
fcst_tscv

# A fable: 10,692 x 8 [1M]
# Key:     .id, region, .model [891]
     .id region .model    month dose_adminstrated  .mean population_under1
   <int> <chr>  <chr>     <mth>            <dist>  <dbl>             <dbl>
 1     1 A      mean   2020 Mar N(12767, 3628753) 12767.           169023.
 2     1 A      mean   2020 Apr N(12767, 3628753) 12767.           169023.
 3     1 A      mean   2020 May N(12767, 3628753) 12767.           169023.
 4     1 A      mean   2020 Jun N(12767, 3628753) 12767.           169023.
 5     1 A      mean   2020 Jul N(12767, 3628753) 12767.           169023.
 6     1 A      mean   2020 Aug N(12767, 3628753) 12767.           169023.
 7     1 A      mean   2020 Sep N(12767, 3628753) 12767.           169023.
 8     1 A      mean   2020 Oct N(12767, 3628753) 12767.           169023.
 9     1 A      mean   2020 Nov N(12767, 3628753) 12767.           169023.
10     1 A      mean   2020 Dec N(12767, 3628753) 12767.           169023.
# ℹ 10,682 more rows
# ℹ 1 more variable: strike <fct>
…
Observe the fcst_accuracy object.

What type of data structure is it? How many rows and columns are present, and what do they represent?

You may want to select a measure you focus on:

fcst_accuracy |> select(RMSE,MAE,MASE, winkler, CRPS)

# A tibble: 81 × 5
    RMSE   MAE  MASE winkler  CRPS
   <dbl> <dbl> <dbl>   <dbl> <dbl>
 1 1279. 1026. 0.621   6826.  740.
 2  683.  559. 0.698   3182.  388.
 3 1084.  869. 0.438   8913.  726.
 4 1632. 1243. 0.597   9473.  962.
 5  593.  485. 0.953   2558.  338.
 6 1924. 1500. 1.05    8965. 1103.
 7 1841. 1647. 0.881   8030. 1070.
 8  926.  787. 0.508   6223.  577.
 9  206.  170. 0.550   1346.  127.
10 1340. 1014. 0.614   6374.  755.
# ℹ 71 more rows
…
What insights do these plots provide?

accuracy across horizon

What if you want to show the accuracy measure for each model and each horizon (h=1, 2,…,12)?

In fable we don’t get automatically a column that corresponds to forecast horizon (h=1,2,3,…, 12). If this is something you are interested in, you can do it yourself, let’s first observe the first 24 observations to see the difference later:

fcst_tscv[1:24,]

# A fable: 24 x 8 [1M]
# Key:     .id, region, .model [2]
     .id region .model    month dose_adminstrated  .mean population_under1
   <int> <chr>  <chr>     <mth>            <dist>  <dbl>             <dbl>
 1     1 A      mean   2020 Mar N(12767, 3628753) 12767.           169023.
 2     1 A      mean   2020 Apr N(12767, 3628753) 12767.           169023.
 3     1 A      mean   2020 May N(12767, 3628753) 12767.           169023.
 4     1 A      mean   2020 Jun N(12767, 3628753) 12767.           169023.
 5     1 A      mean   2020 Jul N(12767, 3628753) 12767.           169023.
 6     1 A      mean   2020 Aug N(12767, 3628753) 12767.           169023.
 7     1 A      mean   2020 Sep N(12767, 3628753) 12767.           169023.
 8     1 A      mean   2020 Oct N(12767, 3628753) 12767.           169023.
 9     1 A      mean   2020 Nov N(12767, 3628753) 12767.           169023.
10     1 A      mean   2020 Dec N(12767, 3628753) 12767.           169023.
# ℹ 14 more rows
# ℹ 1 more variable: strike <fct>
…
